data/Prep_Data/tek0001ALL.csv

Model,MDO3012
Firmware Version,1.26

Waveform Type,ANALOG,
Point Format,Y,
Horizontal Units,s,
Horizontal Scale,0.0004,
Horizontal Delay,0,
Sample Interval,4e-07,
Record Length,10000,
Gating,0.0% to 100.0%,
Probe Attenuation,10,1
Vertical Units,V,V
Vertical Offset,0,0
Vertical Scale,0.1,1
Vertical Position,0,0
,,
,,
,,
Label,,
TIME,CH1,CH2
-2.0000e-03,0.0942812,1.90922
-1.9996e-03,0.0946719,1.91375
-1.9992e-03,0.0946875,1.91875
-1.9988e-03,0.0953906,1.91594
-1.9984e-03,0.0950625,1.91141
-1.9980e-03,0.0952031,1.90875
-1.9976e-03,0.0960625,1.91578
-1.9972e-03,0.095625,1.91844
-1.9968e-03,0.0970781,1.91203
-1.9964e-03,0.096625,1.91297
-1.9960e-03,0.0969375,1.91
-1.9956e-03,0.0970938,1.91984
-1.9952e-03,0.0981094,1.91016
-1.9948e-03,0.0984219,1.92031
-1.9944e-03,0.0976406,1.91641
-1.9940e-03,0.0983438,1.91688
-1.9936e-03,0.0985156,1.92219
-1.9932e-03,0.0983125,1.92047
-1.9928e-03,0.0988438,1.92672
-1.9924e-03,0.0996719,1.91953
-1.9920e-03,0.100297,1.91828
-1.9916e-03,0.101078,1.91219
-1.9912e-03,0.100828,1.92391
-1.9908e-03,0.10125,1.92453
-1.9904e-03,0.101391,1.91781
-1.9900e-03,0.10175,1.92297
-1.9896e-03,0.101625,1.92375
-1.9892e-03,0.101672,1.91859
-1.9888e-03,0.102156,1.92063
-1.9884e-03,0.103328,1.92188
-1.9880e-03,0.10275,1.92
-1.9876e-03,0.102813,1.93281
-1.9872e-03,0.103469,1.92
-1.9868e-03,0.10325,1.91406
-1.9864e-03,0.103375,1.91781
-1.9860e-03,0.103922,1.91906
-1.9856e-03,0.104328,1.92656
-1.9852e-03,0.104688,1.92672
-1.9848e-03,0.1045,1.92234
-1.9844e-03,0.104625,1.92109
-1.9840e-03,0.106063,1.92672
-1.9836e-03,0.105422,1.91906
-1.9832e-03,0.106234,1.92516
-1.9828e-03,0.106422,1.92875
-1.9824e-03,0.107047,1.92969
-1.9820e-03,0.105891,1.92938
-1.9816e-03,0.107344,1.92469
-1.9812e-03,0.106188,1.92453
-1.9808e-03,0.107594,1.92609
-1.9804e-03,0.108047,1.93031
-1.9800e-03,0.108828,1.9275
-1.9796e-03,0.108313,1.93078
-1.9792e-03,0.108266,1.92563
-1.9788e-03,0.109609,1.92969
-1.9784e-03,0.109594,1.92531
-1.9780e-03,0.109453,1.93125
-1.9776e-03,0.109688,1.92891
-1.9772e-03,0.110578,1.93797
-1.9768e-03,0.110969,1.92469
-1.9764e-03,0.111781,1.93531
-1.9760e-03,0.110609,1.93
-1.9756e-03,0.110844,1.92891
-1.9752e-03,0.110969,1.93875
-1.9748e-03,0.110875,1.93063
-1.9744e-03,0.111656,1.93
-1.9740e-03,0.112547,1.93703
-1.9736e-03,0.112453,1.92078
-1.9732e-03,0.113016,1.93016
-1.9728e-03,0.113422,1.93219
-1.9724e-03,0.112766,1.92875
-1.9720e-03,0.113234,1.92922
-1.9716e-03,0.114062,1.93203
-1.9712e-03,0.113406,1.92813
-1.9708e-03,0.113141,1.92641
-1.9704e-03,0.114562,1.92828
-1.9700e-03,0.114281,1.92281
-1.9696e-03,0.114719,1.93094
-1.9692e-03,0.114875,1.92797
-1.9688e-03,0.114703,1.9275
-1.9684e-03,0.115625,1.92672
-1.9680e-03,0.116422,1.92484
-1.9676e-03,0.115859,1.93234
-1.9672e-03,0.115656,1.9275
-1.9668e-03,0.117281,1.92859
-1.9664e-03,0.116484,1.93125
-1.9660e-03,0.116937,1.93
-1.9656e-03,0.116187,1.93125
-1.9652e-03,0.117094,1.935
-1.9648e-03,0.117234,1.935
-1.9644e-03,0.118406,1.93266
-1.9640e-03,0.118,1.93953
-1.9636e-03,0.118859,1.93594
-1.9632e-03,0.119703,1.93625
-1.9628e-03,0.119484,1.93281
-1.9624e-03,0.118922,1.92797
-1.9620e-03,0.119109,1.93609
-1.9616e-03,0.119328,1.92922
-1.9612e-03,0.120938,1.92563
-1.9608e-03,0.120125,1.93469
-1.9604e-03,0.120688,1.93563
-1.9600e-03,0.120469,1.93844
-1.9596e-03,0.120469,1.93609
-1.9592e-03,0.119922,1.93391
-1.9588e-03,0.120313,1.93219
-1.9584e-03,0.121578,1.93797
-1.9580e-03,0.120719,1.94047
-1.9576e-03,0.120938,1.93875
-1.9572e-03,0.121781,1.94781
-1.9568e-03,0.1225,1.93594
-1.9564e-03,0.121828,1.94312
-1.9560e-03,0.12225,1.93875
-1.9556e-03,0.122875,1.94578
-1.9552e-03,0.123125,1.93594
-1.9548e-03,0.122953,1.93547
-1.9544e-03,0.122297,1.93594
-1.9540e-03,0.123781,1.93109
-1.9536e-03,0.122563,1.94063
-1.9532e-03,0.123547,1.93063
-1.9528e-03,0.123703,1.94281
-1.9524e-03,0.123281,1.93938
-1.9520e-03,0.124422,1.93281
-1.9516e-03,0.124516,1.935
-1.9512e-03,0.124656,1.93813
-1.9508e-03,0.124828,1.93766
-1.9504e-03,0.124391,1.9325
-1.9500e-03,0.125234,1.94094
-1.9496e-03,0.124969,1.94828
-1.9492e-03,0.125297,1.92938
-1.9488e-03,0.124953,1.93828
-1.9484e-03,0.125438,1.93984
-1.9480e-03,0.125516,1.94203
-1.9476e-03,0.126625,1.93594
-1.9472e-03,0.126578,1.93953
-1.9468e-03,0.126844,1.94156
-1.9464e-03,0.127359,1.94547
-1.9460e-03,0.127438,1.94781
-1.9456e-03,0.127094,1.93406
-1.9452e-03,0.126656,1.93703
-1.9448e-03,0.128344,1.95031
-1.9444e-03,0.128578,1.94672
-1.9440e-03,0.128734,1.93531
-1.9436e-03,0.128312,1.93766
-1.9432e-03,0.128406,1.93078
-1.9428e-03,0.128141,1.93672
-1.9424e-03,0.128781,1.9425
-1.9420e-03,0.128641,1.93844
-1.9416e-03,0.128734,1.94203
-1.9412e-03,0.129234,1.94094
-1.9408e-03,0.13,1.9425
-1.9404e-03,0.129656,1.93203
-1.9400e-03,0.129828,1.94531
-1.9396e-03,0.129984,1.93344
-1.9392e-03,0.130797,1.93656
-1.9388e-03,0.130812,1.94
-1.9384e-03,0.130562,1.93719
-1.9380e-03,0.131297,1.94828
-1.9376e-03,0.130812,1.94
-1.9372e-03,0.131641,1.94016
-1.9368e-03,0.131234,1.94484
-1.9364e-03,0.131531,1.93875
-1.9360e-03,0.131781,1.93609
-1.9356e-03,0.132156,1.94188
-1.9352e-03,0.131781,1.94578
-1.9348e-03,0.132719,1.94
-1.9344e-03,0.132938,1.93297
-1.9340e-03,0.132156,1.94484
-1.9336e-03,0.132516,1.94125
-1.9332e-03,0.13275,1.94031
-1.9328e-03,0.132938,1.9375
-1.9324e-03,0.133188,1.92984
-1.9320e-03,0.132969,1.94047
-1.9316e-03,0.133813,1.94531
-1.9312e-03,0.133625,1.93828
-1.9308e-03,0.133547,1.93891
-1.9304e-03,0.134031,1.94625
-1.9300e-03,0.133953,1.93938
-1.9296e-03,0.134453,1.94234
-1.9292e-03,0.133766,1.93641
-1.9288e-03,0.135203,1.94344
-1.9284e-03,0.134797,1.94219
-1.9280e-03,0.135141,1.93609
-1.9276e-03,0.135359,1.94547
-1.9272e-03,0.135688,1.94297
-1.9268e-03,0.135,1.94375
-1.9264e-03,0.135625,1.92828
-1.9260e-03,0.135563,1.94734
-1.9256e-03,0.135172,1.945
-1.9252e-03,0.135906,1.94078
-1.9248e-03,0.135781,1.94219
-1.9244e-03,0.135953,1.93359
-1.9240e-03,0.136469,1.93688
-1.9236e-03,0.136813,1.94875
-1.9232e-03,0.137469,1.93906
-1.9228e-03,0.136063,1.94859
-1.9224e-03,0.137422,1.94391
-1.9220e-03,0.137391,1.94828
-1.9216e-03,0.136484,1.94203
-1.9212e-03,0.137547,1.94781
-1.9208e-03,0.137063,1.93953
-1.9204e-03,0.138016,1.94063
-1.9200e-03,0.138016,1.94625
-1.9196e-03,0.138313,1.94484
-1.9192e-03,0.137844,1.95063
-1.9188e-03,0.138984,1.94016
-1.9184e-03,0.139172,1.9525
-1.9180e-03,0.139078,1.95047
-1.9176e-03,0.138813,1.94578
-1.9172e-03,0.139625,1.94016
-1.9168e-03,0.139422,1.94531
-1.9164e-03,0.139859,1.93656
-1.9160e-03,0.139125,1.93922
-1.9156e-03,0.139594,1.95141
-1.9152e-03,0.140344,1.94469
-1.9148e-03,0.140047,1.94828
-1.9144e-03,0.1405,1.94516
-1.9140e-03,0.140547,1.95
-1.9136e-03,0.14,1.95047
-1.9132e-03,0.140422,1.94344
-1.9128e-03,0.140344,1.95312
-1.9124e-03,0.140578,1.94641
-1.9120e-03,0.141203,1.9425
-1.9116e-03,0.140781,1.94984
-1.9112e-03,0.141391,1.94234
-1.9108e-03,0.140906,1.94422
-1.9104e-03,0.141047,1.955
-1.9100e-03,0.140859,1.94578
-1.9096e-03,0.141547,1.94688
-1.9092e-03,0.141422,1.94047
-1.9088e-03,0.141578,1.94016
-1.9084e-03,0.141063,1.94734
-1.9080e-03,0.142,1.94437
-1.9076e-03,0.141672,1.95219
-1.9072e-03,0.142516,1.94578
-1.9068e-03,0.141844,1.9425
-1.9064e-03,0.142828,1.94641
-1.9060e-03,0.143391,1.94125
-1.9056e-03,0.143625,1.94859
-1.9052e-03,0.143344,1.94828
-1.9048e-03,0.143484,1.94859
-1.9044e-03,0.143547,1.94531
-1.9040e-03,0.143156,1.94891
-1.9036e-03,0.142891,1.95156
-1.9032e-03,0.144203,1.95938
-1.9028e-03,0.145016,1.95094
-1.9024e-03,0.143797,1.95469
-1.9020e-03,0.142984,1.94203
-1.9016e-03,0.143219,1.95234
-1.9012e-03,0.143687,1.9475
-1.9008e-03,0.143547,1.95141
-1.9004e-03,0.144063,1.94703
-1.9000e-03,0.144313,1.94031
-1.8996e-03,0.143969,1.93188
-1.8992e-03,0.145,1.95391
-1.8988e-03,0.144953,1.9425
-1.8984e-03,0.143969,1.95281
-1.8980e-03,0.145391,1.94906
-1.8976e-03,0.144687,1.94281
-1.8972e-03,0.144266,1.9475
-1.8968e-03,0.144719,1.95078
-1.8964e-03,0.144797,1.94516
-1.8960e-03,0.145406,1.94344
-1.8956e-03,0.14575,1.94156
-1.8952e-03,0.145297,1.95078
-1.8948e-03,0.144625,1.94828
-1.8944e-03,0.144844,1.945
-1.8940e-03,0.145047,1.95047
-1.8936e-03,0.145844,1.94734
-1.8932e-03,0.146078,1.94719
-1.8928e-03,0.145703,1.94297
-1.8924e-03,0.145844,1.95984
-1.8920e-03,0.145656,1.94734
-1.8916e-03,0.146563,1.94109
-1.8912e-03,0.145344,1.94547
-1.8908e-03,0.146375,1.94719
-1.8904e-03,0.146234,1.94344
-1.8900e-03,0.146422,1.94422
-1.8896e-03,0.145859,1.94844
-1.8892e-03,0.146531,1.94375
-1.8888e-03,0.146406,1.95609
-1.8884e-03,0.146313,1.94156
-1.8880e-03,0.14725,1.94063
-1.8876e-03,0.146547,1.94422
-1.8872e-03,0.146203,1.95453
-1.8868e-03,0.147172,1.94859
-1.8864e-03,0.147031,1.95953
-1.8860e-03,0.146969,1.94172
-1.8856e-03,0.147437,1.95344
-1.8852e-03,0.147687,1.94359
-1.8848e-03,0.14725,1.94938
-1.8844e-03,0.147297,1.94266
-1.8840e-03,0.147141,1.95172
-1.8836e-03,0.147281,1.95156
-1.8832e-03,0.146609,1.95125
-1.8828e-03,0.147391,1.95094
-1.8824e-03,0.147469,1.95344
-1.8820e-03,0.148219,1.94344
-1.8816e-03,0.147734,1.94734
-1.8812e-03,0.148156,1.93844
-1.8808e-03,0.148203,1.94766
-1.8804e-03,0.147781,1.94766
-1.8800e-03,0.147547,1.95047
-1.8796e-03,0.148031,1.94453
-1.8792e-03,0.148203,1.94734
-1.8788e-03,0.147953,1.95078
-1.8784e-03,0.148109,1.95484
-1.8780e-03,0.148563,1.95266
-1.8776e-03,0.148609,1.95125
-1.8772e-03,0.14825,1.94422
-1.8768e-03,0.148297,1.94391
-1.8764e-03,0.149031,1.94688
-1.8760e-03,0.148359,1.94844
-1.8756e-03,0.149344,1.95266
-1.8752e-03,0.148406,1.94547
-1.8748e-03,0.148609,1.94578
-1.8744e-03,0.148297,1.95422
-1.8740e-03,0.14875,1.95156
-1.8736e-03,0.149266,1.94938
-1.8732e-03,0.148938,1.94016
-1.8728e-03,0.149484,1.95
-1.8724e-03,0.148953,1.95547
-1.8720e-03,0.148313,1.95172
-1.8716e-03,0.149938,1.95156
-1.8712e-03,0.148484,1.94703
-1.8708e-03,0.149313,1.95031
-1.8704e-03,0.1485,1.95547
-1.8700e-03,0.149063,1.95141
-1.8696e-03,0.1495,1.95281
-1.8692e-03,0.149594,1.94625
-1.8688e-03,0.14875,1.94703
-1.8684e-03,0.148906,1.94688
-1.8680e-03,0.149375,1.94562
-1.8676e-03,0.150203,1.95016
-1.8672e-03,0.149203,1.95578
-1.8668e-03,0.149672,1.94922
-1.8664e-03,0.148797,1.94641
-1.8660e-03,0.149172,1.94625
-1.8656e-03,0.149188,1.95656
-1.8652e-03,0.149313,1.94547
-1.8648e-03,0.148625,1.94484
-1.8644e-03,0.149344,1.95312
-1.8640e-03,0.149094,1.95172
-1.8636e-03,0.149406,1.94609
-1.8632e-03,0.149625,1.93969
-1.8628e-03,0.149141,1.95469
-1.8624e-03,0.149531,1.94516
-1.8620e-03,0.149125,1.94938
-1.8616e-03,0.148406,1.94797
-1.8612e-03,0.14975,1.94922
-1.8608e-03,0.148734,1.95016
-1.8604e-03,0.149516,1.95094
-1.8600e-03,0.149172,1.94922
-1.8596e-03,0.149109,1.94828
-1.8592e-03,0.148766,1.95312
-1.8588e-03,0.149063,1.95156
-1.8584e-03,0.149641,1.95703
-1.8580e-03,0.149047,1.94656
-1.8576e-03,0.148938,1.94219
-1.8572e-03,0.14925,1.95078
-1.8568e-03,0.148234,1.96
-1.8564e-03,0.14825,1.95734
-1.8560e-03,0.148719,1.95437
-1.8556e-03,0.14975,1.95141
-1.8552e-03,0.148844,1.95531
-1.8548e-03,0.149391,1.94109
-1.8544e-03,0.149469,1.94781
-1.8540e-03,0.148672,1.9525
-1.8536e-03,0.148828,1.95437
-1.8532e-03,0.148984,1.93609
-1.8528e-03,0.148828,1.94406
-1.8524e-03,0.149625,1.95312
-1.8520e-03,0.149594,1.95875
-1.8516e-03,0.148797,1.95031
-1.8512e-03,0.149313,1.94359
-1.8508e-03,0.149234,1.94609
-1.8504e-03,0.14825,1.94578
-1.8500e-03,0.148984,1.95328
-1.8496e-03,0.148844,1.95203
-1.8492e-03,0.148453,1.94719
-1.8488e-03,0.148766,1.9575
-1.8484e-03,0.148766,1.95172
-1.8480e-03,0.148469,1.94594
-1.8476e-03,0.148813,1.94516
-1.8472e-03,0.148703,1.94437
-1.8468e-03,0.149422,1.9475
-1.8464e-03,0.147922,1.94844
-1.8460e-03,0.148438,1.9525
-1.8456e-03,0.148641,1.94656
-1.8452e-03,0.148578,1.95344
-1.8448e-03,0.148594,1.94625
-1.8444e-03,0.148281,1.94453
-1.8440e-03,0.149031,1.94797
-1.8436e-03,0.148125,1.94688
-1.8432e-03,0.149094,1.93922
-1.8428e-03,0.148172,1.95031
-1.8424e-03,0.148531,1.95109
-1.8420e-03,0.148875,1.94766
-1.8416e-03,0.148031,1.94281
-1.8412e-03,0.149047,1.94875
-1.8408e-03,0.148016,1.94922
-1.8404e-03,0.148094,1.94312
-1.8400e-03,0.148531,1.95328
-1.8396e-03,0.149156,1.95312
-1.8392e-03,0.148453,1.94922
-1.8388e-03,0.147375,1.94219
-1.8384e-03,0.147844,1.94938
-1.8380e-03,0.148328,1.94328
-1.8376e-03,0.148469,1.94094
-1.8372e-03,0.148797,1.95
-1.8368e-03,0.148375,1.94688
-1.8364e-03,0.147422,1.94875
-1.8360e-03,0.148094,1.95156
-1.8356e-03,0.147375,1.94656
-1.8352e-03,0.147594,1.95234
-1.8348e-03,0.148375,1.95375
-1.8344e-03,0.148578,1.93891
-1.8340e-03,0.1485,1.94469
-1.8336e-03,0.148125,1.95016
-1.8332e-03,0.148125,1.95656
-1.8328e-03,0.148094,1.94547
-1.8324e-03,0.147516,1.95516
-1.8320e-03,0.147406,1.94688
-1.8316e-03,0.147391,1.95578
-1.8312e-03,0.147219,1.94625
-1.8308e-03,0.146937,1.94422
-1.8304e-03,0.146719,1.94953
-1.8300e-03,0.146781,1.95203
-1.8296e-03,0.146859,1.94578
-1.8292e-03,0.147078,1.94828
-1.8288e-03,0.147281,1.94875
-1.8284e-03,0.146156,1.95031
-1.8280e-03,0.147422,1.95031
-1.8276e-03,0.147,1.94859
-1.8272e-03,0.146031,1.95328
-1.8268e-03,0.147437,1.95172
-1.8264e-03,0.147,1.95688
-1.8260e-03,0.146141,1.94625
-1.8256e-03,0.146594,1.9525
-1.8252e-03,0.146594,1.95516
-1.8248e-03,0.145937,1.94422
-1.8244e-03,0.146406,1.945
-1.8240e-03,0.146141,1.94781
-1.8236e-03,0.146781,1.94656
-1.8232e-03,0.145719,1.95266
-1.8228e-03,0.145969,1.9475
-1.8224e-03,0.146016,1.94547
-1.8220e-03,0.146156,1.94453
-1.8216e-03,0.145437,1.94906
-1.8212e-03,0.145641,1.94578
-1.8208e-03,0.145187,1.94797
-1.8204e-03,0.145469,1.95
-1.8200e-03,0.145578,1.94906
-1.8196e-03,0.145359,1.9425
-1.8192e-03,0.145531,1.93984
-1.8188e-03,0.145047,1.94203
-1.8184e-03,0.145406,1.94875
-1.8180e-03,0.145313,1.94781
-1.8176e-03,0.144656,1.96
-1.8172e-03,0.144813,1.94047
-1.8168e-03,0.145484,1.95219
-1.8164e-03,0.144594,1.95125
-1.8160e-03,0.144328,1.95188
-1.8156e-03,0.143859,1.94547
-1.8152e-03,0.144187,1.94109
-1.8148e-03,0.143875,1.94969
-1.8144e-03,0.144563,1.94719
-1.8140e-03,0.143719,1.95203
-1.8136e-03,0.143656,1.94609
-1.8132e-03,0.143594,1.94594
-1.8128e-03,0.144234,1.94172
-1.8124e-03,0.143141,1.94625
-1.8120e-03,0.143422,1.95672
-1.8116e-03,0.1435,1.94719
-1.8112e-03,0.14275,1.94375
-1.8108e-03,0.143219,1.95281
-1.8104e-03,0.143266,1.94984
-1.8100e-03,0.142531,1.94797
-1.8096e-03,0.142,1.95031
-1.8092e-03,0.142516,1.95422
-1.8088e-03,0.142516,1.94891
-1.8084e-03,0.142016,1.93969
-1.8080e-03,0.141672,1.95375
-1.8076e-03,0.142531,1.95156
-1.8072e-03,0.1425,1.93828
-1.8068e-03,0.141297,1.94531
-1.8064e-03,0.141625,1.94109
-1.8060e-03,0.141047,1.94875
-1.8056e-03,0.141984,1.95969
-1.8052e-03,0.140953,1.95234
-1.8048e-03,0.1405,1.95281
-1.8044e-03,0.140422,1.94203
-1.8040e-03,0.140641,1.94719
-1.8036e-03,0.140078,1.94469
-1.8032e-03,0.140656,1.95109
-1.8028e-03,0.139953,1.94516
-1.8024e-03,0.139813,1.94312
-1.8020e-03,0.139719,1.95312
-1.8016e-03,0.139547,1.94422
-1.8012e-03,0.139187,1.93891
-1.8008e-03,0.139594,1.94781
-1.8004e-03,0.139094,1.94828
-1.8000e-03,0.138656,1.94219
-1.7996e-03,0.139109,1.94219
-1.7992e-03,0.139172,1.95203
-1.7988e-03,0.13875,1.95453
-1.7984e-03,0.138297,1.94781
-1.7980e-03,0.138641,1.94359
-1.7976e-03,0.138172,1.95125
-1.7972e-03,0.13775,1.94562
-1.7968e-03,0.13875,1.945
-1.7964e-03,0.137437,1.94484
-1.7960e-03,0.137969,1.94188
-1.7956e-03,0.137656,1.94484
-1.7952e-03,0.138141,1.93891
-1.7948e-03,0.137578,1.95859
-1.7944e-03,0.137375,1.94172
-1.7940e-03,0.138281,1.93766
-1.7936e-03,0.137578,1.94547
-1.7932e-03,0.136797,1.94406
-1.7928e-03,0.136828,1.94672
-1.7924e-03,0.136375,1.94312
-1.7920e-03,0.136172,1.94688
-1.7916e-03,0.136469,1.94578
-1.7912e-03,0.135922,1.94047
-1.7908e-03,0.136234,1.95344
-1.7904e-03,0.136437,1.94094
-1.7900e-03,0.135469,1.93938
-1.7896e-03,0.136563,1.94188
-1.7892e-03,0.135281,1.94578
-1.7888e-03,0.134656,1.94891
-1.7884e-03,0.134797,1.94859
-1.7880e-03,0.135688,1.94109
-1.7876e-03,0.135281,1.94219
-1.7872e-03,0.135172,1.94625
-1.7868e-03,0.134906,1.94953
-1.7864e-03,0.134563,1.94906
-1.7860e-03,0.134281,1.94594
-1.7856e-03,0.134703,1.9475
-1.7852e-03,0.134719,1.94719
-1.7848e-03,0.134141,1.93828
-1.7844e-03,0.134125,1.94297
-1.7840e-03,0.133984,1.94391
-1.7836e-03,0.134266,1.94109
-1.7832e-03,0.133406,1.94328
-1.7828e-03,0.13275,1.93641
-1.7824e-03,0.133641,1.93906
-1.7820e-03,0.132453,1.93922
-1.7816e-03,0.132094,1.94078
-1.7812e-03,0.131828,1.93719
-1.7808e-03,0.131531,1.94312
-1.7804e-03,0.132281,1.94406
-1.7800e-03,0.131766,1.94531
-1.7796e-03,0.131766,1.94375
-1.7792e-03,0.131797,1.94594
-1.7788e-03,0.130375,1.93484
-1.7784e-03,0.131031,1.94625
-1.7780e-03,0.130594,1.94437
-1.7776e-03,0.131609,1.94266
-1.7772e-03,0.130656,1.94281
-1.7768e-03,0.130281,1.94797
-1.7764e-03,0.130062,1.93422
-1.7760e-03,0.130359,1.9375
-1.7756e-03,0.129547,1.94125
-1.7752e-03,0.129719,1.93891
-1.7748e-03,0.129203,1.93844
-1.7744e-03,0.129406,1.94188
-1.7740e-03,0.128922,1.94
-1.7736e-03,0.1285,1.93781
-1.7732e-03,0.128125,1.94719
-1.7728e-03,0.127812,1.95
-1.7724e-03,0.127594,1.94609
-1.7720e-03,0.127672,1.94484
-1.7716e-03,0.127938,1.93984
-1.7712e-03,0.127703,1.93828
-1.7708e-03,0.127438,1.93844
-1.7704e-03,0.127172,1.93656
-1.7700e-03,0.126297,1.94219
-1.7696e-03,0.126344,1.93781
-1.7692e-03,0.125922,1.9425
-1.7688e-03,0.125719,1.93859
-1.7684e-03,0.126,1.93938
-1.7680e-03,0.125547,1.9325
-1.7676e-03,0.125547,1.94
-1.7672e-03,0.125375,1.94063
-1.7668e-03,0.125062,1.94938
-1.7664e-03,0.125281,1.93938
-1.7660e-03,0.125,1.93906
-1.7656e-03,0.124875,1.94328
-1.7652e-03,0.124203,1.93344
-1.7648e-03,0.124094,1.94219
-1.7644e-03,0.124063,1.93828
-1.7640e-03,0.124047,1.93063
-1.7636e-03,0.124172,1.93781
-1.7632e-03,0.124016,1.93594
-1.7628e-03,0.123375,1.93875
-1.7624e-03,0.12225,1.93859
-1.7620e-03,0.123078,1.93969
-1.7616e-03,0.122672,1.93
-1.7612e-03,0.12325,1.93734
-1.7608e-03,0.123234,1.93234
-1.7604e-03,0.122844,1.94141
-1.7600e-03,0.122406,1.94016
-1.7596e-03,0.122453,1.93984
-1.7592e-03,0.121688,1.9375
-1.7588e-03,0.121203,1.93766
-1.7584e-03,0.121156,1.94
-1.7580e-03,0.121125,1.9325
-1.7576e-03,0.121781,1.93203
-1.7572e-03,0.120984,1.93406
-1.7568e-03,0.119953,1.93094
-1.7564e-03,0.120672,1.93734
-1.7560e-03,0.120234,1.93109
-1.7556e-03,0.120469,1.93641
-1.7552e-03,0.119609,1.93422
-1.7548e-03,0.118359,1.93688
-1.7544e-03,0.118516,1.93516
-1.7540e-03,0.119219,1.92891
-1.7536e-03,0.119125,1.93
-1.7532e-03,0.119031,1.93484
-1.7528e-03,0.119125,1.93375
-1.7524e-03,0.118391,1.94219
-1.7520e-03,0.118297,1.93344
-1.7516e-03,0.118063,1.93484
-1.7512e-03,0.11725,1.93016
-1.7508e-03,0.116687,1.93156
-1.7504e-03,0.116719,1.92938
-1.7500e-03,0.116906,1.93422
-1.7496e-03,0.117031,1.92719
-1.7492e-03,0.116844,1.92703
-1.7488e-03,0.116312,1.93703
-1.7484e-03,0.116016,1.93156
-1.7480e-03,0.115078,1.93312
-1.7476e-03,0.116047,1.92859
-1.7472e-03,0.115922,1.93
-1.7468e-03,0.115484,1.92969
-1.7464e-03,0.114266,1.93016
-1.7460e-03,0.113891,1.9275
-1.7456e-03,0.113906,1.93297
-1.7452e-03,0.113594,1.93109
-1.7448e-03,0.113641,1.92797
-1.7444e-03,0.113156,1.93109
-1.7440e-03,0.1135,1.93078
-1.7436e-03,0.112812,1.92844
-1.7432e-03,0.112672,1.93531
-1.7428e-03,0.112875,1.93844
-1.7424e-03,0.113219,1.93312
-1.7420e-03,0.112094,1.92734
-1.7416e-03,0.111672,1.93063
-1.7412e-03,0.111984,1.93797
-1.7408e-03,0.111563,1.93234
-1.7404e-03,0.110703,1.92703
-1.7400e-03,0.11075,1.93172
-1.7396e-03,0.110172,1.93188
-1.7392e-03,0.110516,1.93703
-1.7388e-03,0.110094,1.92953
-1.7384e-03,0.109297,1.92953
-1.7380e-03,0.109297,1.93219
-1.7376e-03,0.109234,1.93047
-1.7372e-03,0.109328,1.92516
-1.7368e-03,0.108719,1.93813
-1.7364e-03,0.107766,1.92578
-1.7360e-03,0.108094,1.93344
-1.7356e-03,0.106719,1.92344
-1.7352e-03,0.106641,1.92859
-1.7348e-03,0.107266,1.92766
-1.7344e-03,0.106359,1.92953
-1.7340e-03,0.106,1.92672
-1.7336e-03,0.106141,1.93109
-1.7332e-03,0.105844,1.925
-1.7328e-03,0.106234,1.92813
-1.7324e-03,0.105031,1.92203
-1.7320e-03,0.104969,1.92969
-1.7316e-03,0.105,1.92609
-1.7312e-03,0.104703,1.92953
-1.7308e-03,0.105063,1.92469
-1.7304e-03,0.104453,1.92547
-1.7300e-03,0.104,1.93
-1.7296e-03,0.103531,1.92656
-1.7292e-03,0.103828,1.92406
-1.7288e-03,0.103563,1.92859
-1.7284e-03,0.103,1.92016
-1.7280e-03,0.102438,1.92281
-1.7276e-03,0.102266,1.92344
-1.7272e-03,0.103109,1.91813
-1.7268e-03,0.102078,1.92719
