data/Prep_Data/tek0003A_LLAB2.1.csv

Model,MDO3012
Firmware Version,1.26

Waveform Type,ANALOG,,,Waveform Type,ANALOG
Point Format,Y,,,Point Format,Y
Horizontal Units,s,,,Horizontal Units,s
Horizontal Scale,0.0002,,,Horizontal Scale,0.0002
Horizontal Delay,0,,,Horizontal Delay,0
Sample Interval,2e-07,,,Sample Interval,2e-07
Record Length,10000,,,Record Length,10000
Gating,0.0% to 100.0%,,,Gating,0.0% to 100.0%
Probe Attenuation,10,0.01,,Probe Attenuation,1
Vertical Units,V,A,,Vertical Units,W
Vertical Offset,0,0,,Vertical Offset,0
Vertical Scale,1,0.01,,Vertical Scale,0.2
Vertical Position,-0.02,-0.02,,Vertical Position,-0.0961381
,,,,,
,,,,,
,,,,,
Label,,,,Label,
TIME,CH1,CH2,,TIME,"MATH<CH1*CH2>"
-1.0000e-03,3.34891,-0.0126328,,-1.0000e-03,-0.0584911
-9.9980e-04,2.38547,-0.0202922,,-9.9980e-04,-0.0515224
-9.9960e-04,2.37328,-0.0205844,,-9.9960e-04,-0.0490536
-9.9940e-04,2.45531,-0.0205031,,-9.9940e-04,-0.0500224
-9.9920e-04,2.50516,-0.0203625,,-9.9920e-04,-0.0510849
-9.9900e-04,2.40719,-0.0202781,,-9.9900e-04,-0.0483349
-9.9880e-04,2.46828,-0.02005,,-9.9880e-04,-0.0500224
-9.9860e-04,2.48859,-0.0201188,,-9.9860e-04,-0.0500536
-9.9840e-04,2.42656,-0.0199563,,-9.9840e-04,-0.0482724
-9.9820e-04,2.47078,-0.0199078,,-9.9820e-04,-0.0493349
-9.9800e-04,2.48203,-0.0198547,,-9.9800e-04,-0.0495536
-9.9780e-04,2.42687,-0.0198672,,-9.9780e-04,-0.0479286
-9.9760e-04,2.46141,-0.0197672,,-9.9760e-04,-0.0487411
-9.9740e-04,2.45594,-0.0198203,,-9.9740e-04,-0.0489911
-9.9720e-04,2.42109,-0.0197453,,-9.9720e-04,-0.0478661
-9.9700e-04,2.45562,-0.0198375,,-9.9700e-04,-0.0482411
-9.9680e-04,2.45234,-0.0198766,,-9.9680e-04,-0.0484286
-9.9660e-04,2.42172,-0.0197203,,-9.9660e-04,-0.0478661
-9.9640e-04,2.43422,-0.0198484,,-9.9640e-04,-0.0482099
-9.9620e-04,2.44141,-0.0197359,,-9.9620e-04,-0.0481161
-9.9600e-04,2.42594,-0.0198219,,-9.9600e-04,-0.0481474
-9.9580e-04,2.43688,-0.01975,,-9.9580e-04,-0.0484286
-9.9560e-04,2.43703,-0.0198594,,-9.9560e-04,-0.0483974
-9.9540e-04,2.42922,-0.0199172,,-9.9540e-04,-0.0484599
-9.9520e-04,2.4375,-0.0197844,,-9.9520e-04,-0.0484911
-9.9500e-04,2.4475,-0.0197344,,-9.9500e-04,-0.0486161
-9.9480e-04,2.43312,-0.0198422,,-9.9480e-04,-0.0483661
-9.9460e-04,2.44031,-0.0198938,,-9.9460e-04,-0.0484599
-9.9440e-04,2.43688,-0.0199563,,-9.9440e-04,-0.0487411
-9.9420e-04,2.43391,-0.0199703,,-9.9420e-04,-0.0483661
-9.9400e-04,2.44094,-0.0199125,,-9.9400e-04,-0.0486474
-9.9380e-04,2.43125,-0.0199516,,-9.9380e-04,-0.0485224
-9.9360e-04,2.43063,-0.0199641,,-9.9360e-04,-0.0483036
-9.9340e-04,2.44266,-0.0199813,,-9.9340e-04,-0.0486474
-9.9320e-04,2.43203,-0.0199828,,-9.9320e-04,-0.0485536
-9.9300e-04,2.42516,-0.0199641,,-9.9300e-04,-0.0485224
-9.9280e-04,2.43312,-0.0199453,,-9.9280e-04,-0.0488036
-9.9260e-04,2.43141,-0.0199438,,-9.9260e-04,-0.0487411
-9.9240e-04,2.42406,-0.0199281,,-9.9240e-04,-0.0486786
-9.9220e-04,2.43016,-0.0199672,,-9.9220e-04,-0.0486161
-9.9200e-04,2.43,-0.0200781,,-9.9200e-04,-0.0482411
-9.9180e-04,2.42234,-0.0199328,,-9.9180e-04,-0.0487099
-9.9160e-04,2.42,-0.0200516,,-9.9160e-04,-0.0487099
-9.9140e-04,2.42734,-0.0200531,,-9.9140e-04,-0.0486474
-9.9120e-04,2.42469,-0.0199609,,-9.9120e-04,-0.0485849
-9.9100e-04,2.41703,-0.0199984,,-9.9100e-04,-0.0485536
-9.9080e-04,2.42703,-0.0199719,,-9.9080e-04,-0.0484911
-9.9060e-04,2.43031,-0.0200063,,-9.9060e-04,-0.0485536
-9.9040e-04,2.43031,-0.0200234,,-9.9040e-04,-0.0485849
-9.9020e-04,2.41766,-0.0200922,,-9.9020e-04,-0.0485849
-9.9000e-04,2.42563,-0.0200516,,-9.9000e-04,-0.0485849
-9.8980e-04,2.42422,-0.0199563,,-9.8980e-04,-0.0484599
-9.8960e-04,2.42359,-0.0200484,,-9.8960e-04,-0.0486474
-9.8940e-04,2.42188,-0.0200656,,-9.8940e-04,-0.0486161
-9.8920e-04,2.42719,-0.0201016,,-9.8920e-04,-0.0485224
-9.8900e-04,2.41672,-0.0200078,,-9.8900e-04,-0.0486786
-9.8880e-04,2.41812,-0.0200906,,-9.8880e-04,-0.0487099
-9.8860e-04,2.42375,-0.0200375,,-9.8860e-04,-0.0485536
-9.8840e-04,2.41797,-0.0200516,,-9.8840e-04,-0.0485849
-9.8820e-04,2.41375,-0.0200422,,-9.8820e-04,-0.0483349
-9.8800e-04,2.40938,-0.020075,,-9.8800e-04,-0.0483036
-9.8780e-04,2.42234,-0.0199922,,-9.8780e-04,-0.0484599
-9.8760e-04,2.42172,-0.0199313,,-9.8760e-04,-0.0483036
-9.8740e-04,2.41906,-0.0199484,,-9.8740e-04,-0.0484599
-9.8720e-04,2.41703,-0.0200328,,-9.8720e-04,-0.0486786
-9.8700e-04,2.42297,-0.0200531,,-9.8700e-04,-0.0484599
-9.8680e-04,2.41953,-0.0201141,,-9.8680e-04,-0.0485224
-9.8660e-04,2.42125,-0.0200859,,-9.8660e-04,-0.0483974
-9.8640e-04,2.41609,-0.0201313,,-9.8640e-04,-0.0483661
-9.8620e-04,2.42094,-0.0200938,,-9.8620e-04,-0.0485536
-9.8600e-04,2.41875,-0.0201453,,-9.8600e-04,-0.0486474
-9.8580e-04,2.41328,-0.0200891,,-9.8580e-04,-0.0485536
-9.8560e-04,2.40797,-0.0200813,,-9.8560e-04,-0.0487411
-9.8540e-04,2.41844,-0.0200422,,-9.8540e-04,-0.0484911
-9.8520e-04,2.41125,-0.0199875,,-9.8520e-04,-0.0483974
-9.8500e-04,2.41781,-0.0200313,,-9.8500e-04,-0.0484599
-9.8480e-04,2.41359,-0.0201156,,-9.8480e-04,-0.0485224
-9.8460e-04,2.41188,-0.0200563,,-9.8460e-04,-0.0483036
-9.8440e-04,2.41797,-0.0201313,,-9.8440e-04,-0.0483661
-9.8420e-04,2.41812,-0.0200563,,-9.8420e-04,-0.0482411
-9.8400e-04,2.41172,-0.0201766,,-9.8400e-04,-0.0484911
-9.8380e-04,2.40672,-0.0200875,,-9.8380e-04,-0.0484286
-9.8360e-04,2.40672,-0.0200688,,-9.8360e-04,-0.0484286
-9.8340e-04,2.40687,-0.0200906,,-9.8340e-04,-0.0484911
-9.8320e-04,2.40906,-0.0201219,,-9.8320e-04,-0.0485849
-9.8300e-04,2.40687,-0.0200688,,-9.8300e-04,-0.0484911
-9.8280e-04,2.41219,-0.0200891,,-9.8280e-04,-0.0482724
-9.8260e-04,2.41063,-0.0200719,,-9.8260e-04,-0.0483661
-9.8240e-04,2.41312,-0.0200797,,-9.8240e-04,-0.0484599
-9.8220e-04,2.41047,-0.0200641,,-9.8220e-04,-0.0485849
-9.8200e-04,2.40344,-0.0200375,,-9.8200e-04,-0.0482724
-9.8180e-04,2.40656,-0.0200438,,-9.8180e-04,-0.0483036
-9.8160e-04,2.40859,-0.0200594,,-9.8160e-04,-0.0485224
-9.8140e-04,2.41047,-0.0200875,,-9.8140e-04,-0.0485536
-9.8120e-04,2.40563,-0.0200453,,-9.8120e-04,-0.0482724
-9.8100e-04,2.41016,-0.0200375,,-9.8100e-04,-0.0483974
-9.8080e-04,2.405,-0.0201,,-9.8080e-04,-0.0483661
-9.8060e-04,2.40359,-0.0201078,,-9.8060e-04,-0.0484286
-9.8040e-04,2.40469,-0.0200688,,-9.8040e-04,-0.0483974
-9.8020e-04,2.40328,-0.0201359,,-9.8020e-04,-0.0483349
-9.8000e-04,2.40641,-0.0200563,,-9.8000e-04,-0.0484911
-9.7980e-04,2.40469,-0.0199984,,-9.7980e-04,-0.0483349
-9.7960e-04,2.40828,-0.0200547,,-9.7960e-04,-0.0483974
-9.7940e-04,2.40297,-0.0201172,,-9.7940e-04,-0.0484599
-9.7920e-04,2.40375,-0.0201125,,-9.7920e-04,-0.0483974
-9.7900e-04,2.40047,-0.0200547,,-9.7900e-04,-0.0482411
-9.7880e-04,2.40016,-0.0200688,,-9.7880e-04,-0.0486474
-9.7860e-04,2.39984,-0.0200953,,-9.7860e-04,-0.0485536
-9.7840e-04,2.40328,-0.0200703,,-9.7840e-04,-0.0482411
-9.7820e-04,2.40703,-0.02005,,-9.7820e-04,-0.0484599
-9.7800e-04,2.40641,-0.0201531,,-9.7800e-04,-0.0481474
-9.7780e-04,2.40344,-0.0200938,,-9.7780e-04,-0.0483661
-9.7760e-04,2.39891,-0.0200172,,-9.7760e-04,-0.0480224
-9.7740e-04,2.39641,-0.0201391,,-9.7740e-04,-0.0483349
-9.7720e-04,2.40984,-0.0200938,,-9.7720e-04,-0.0483349
-9.7700e-04,2.40719,-0.0200563,,-9.7700e-04,-0.0482724
-9.7680e-04,2.40219,-0.0200094,,-9.7680e-04,-0.0483349
-9.7660e-04,2.40141,-0.0201688,,-9.7660e-04,-0.0483349
-9.7640e-04,2.40422,-0.0200984,,-9.7640e-04,-0.0483661
-9.7620e-04,2.40453,-0.0200656,,-9.7620e-04,-0.0481474
-9.7600e-04,2.40344,-0.0201109,,-9.7600e-04,-0.0484599
-9.7580e-04,2.40547,-0.0200984,,-9.7580e-04,-0.0482724
-9.7560e-04,2.40078,-0.0201078,,-9.7560e-04,-0.0485849
-9.7540e-04,2.39609,-0.0200953,,-9.7540e-04,-0.0483661
-9.7520e-04,2.40375,-0.0201078,,-9.7520e-04,-0.0484286
-9.7500e-04,2.40234,-0.0200813,,-9.7500e-04,-0.0482411
-9.7480e-04,2.40437,-0.0201203,,-9.7480e-04,-0.0481161
-9.7460e-04,2.39219,-0.0200609,,-9.7460e-04,-0.0485224
-9.7440e-04,2.4,-0.0201219,,-9.7440e-04,-0.0482099
-9.7420e-04,2.40078,-0.0201828,,-9.7420e-04,-0.0480536
-9.7400e-04,2.40109,-0.0200719,,-9.7400e-04,-0.0483036
-9.7380e-04,2.39969,-0.0200688,,-9.7380e-04,-0.0482411
-9.7360e-04,2.39688,-0.0201156,,-9.7360e-04,-0.0483974
-9.7340e-04,2.39813,-0.0200328,,-9.7340e-04,-0.0483036
-9.7320e-04,2.39234,-0.0200422,,-9.7320e-04,-0.0481161
-9.7300e-04,2.40391,-0.0200594,,-9.7300e-04,-0.0482724
-9.7280e-04,2.39109,-0.0201016,,-9.7280e-04,-0.0482411
-9.7260e-04,2.40234,-0.0200531,,-9.7260e-04,-0.0481786
-9.7240e-04,2.40469,-0.0200328,,-9.7240e-04,-0.0483036
-9.7220e-04,2.39766,-0.0200359,,-9.7220e-04,-0.0483036
-9.7200e-04,2.39969,-0.0201188,,-9.7200e-04,-0.0483036
-9.7180e-04,2.39531,-0.0200625,,-9.7180e-04,-0.0483036
-9.7160e-04,2.39734,-0.0200531,,-9.7160e-04,-0.0480224
-9.7140e-04,2.40328,-0.0201,,-9.7140e-04,-0.0482724
-9.7120e-04,2.40125,-0.0200703,,-9.7120e-04,-0.0479911
-9.7100e-04,2.39875,-0.0201172,,-9.7100e-04,-0.0481474
-9.7080e-04,2.4025,-0.0201422,,-9.7080e-04,-0.0480224
-9.7060e-04,2.39172,-0.0200984,,-9.7060e-04,-0.0481474
-9.7040e-04,2.39938,-0.0200969,,-9.7040e-04,-0.0479599
-9.7020e-04,2.38984,-0.0201297,,-9.7020e-04,-0.0480849
-9.7000e-04,2.40734,-0.0201281,,-9.7000e-04,-0.0480849
-9.6980e-04,2.39438,-0.0201172,,-9.6980e-04,-0.0483036
-9.6960e-04,2.39672,-0.0201281,,-9.6960e-04,-0.0481474
-9.6940e-04,2.39359,-0.0200969,,-9.6940e-04,-0.0481474
-9.6920e-04,2.39656,-0.0200953,,-9.6920e-04,-0.0480536
-9.6900e-04,2.39156,-0.0200281,,-9.6900e-04,-0.0481161
-9.6880e-04,2.38766,-0.0200641,,-9.6880e-04,-0.0481474
-9.6860e-04,2.39688,-0.0200938,,-9.6860e-04,-0.0481474
-9.6840e-04,2.39484,-0.0201031,,-9.6840e-04,-0.0481161
-9.6820e-04,2.39578,-0.0201391,,-9.6820e-04,-0.0481786
-9.6800e-04,2.39406,-0.0200922,,-9.6800e-04,-0.0482411
-9.6780e-04,2.38781,-0.0200734,,-9.6780e-04,-0.0480536
-9.6760e-04,2.39047,-0.0200938,,-9.6760e-04,-0.0479911
-9.6740e-04,2.38734,-0.0201188,,-9.6740e-04,-0.0481161
-9.6720e-04,2.39016,-0.0201156,,-9.6720e-04,-0.0480224
-9.6700e-04,2.38781,-0.0200375,,-9.6700e-04,-0.0482724
-9.6680e-04,2.38547,-0.0200406,,-9.6680e-04,-0.0480849
-9.6660e-04,2.39469,-0.0200984,,-9.6660e-04,-0.0479911
-9.6640e-04,2.40422,-0.0200641,,-9.6640e-04,-0.0479599
-9.6620e-04,2.3925,-0.0201031,,-9.6620e-04,-0.0482099
-9.6600e-04,2.3925,-0.0200859,,-9.6600e-04,-0.0481161
-9.6580e-04,2.39516,-0.0200531,,-9.6580e-04,-0.0483036
-9.6560e-04,2.3975,-0.0200594,,-9.6560e-04,-0.0480224
-9.6540e-04,2.39688,-0.0201406,,-9.6540e-04,-0.0482411
-9.6520e-04,2.39,-0.0201328,,-9.6520e-04,-0.0480536
-9.6500e-04,2.39828,-0.0201406,,-9.6500e-04,-0.0480849
-9.6480e-04,2.39438,-0.0200031,,-9.6480e-04,-0.0480536
-9.6460e-04,2.39625,-0.0200531,,-9.6460e-04,-0.0479599
-9.6440e-04,2.3975,-0.0200438,,-9.6440e-04,-0.0480849
-9.6420e-04,2.39375,-0.0200578,,-9.6420e-04,-0.0478661
-9.6400e-04,2.38531,-0.0201234,,-9.6400e-04,-0.0481161
-9.6380e-04,2.39516,-0.0201047,,-9.6380e-04,-0.0480849
-9.6360e-04,2.39859,-0.0200922,,-9.6360e-04,-0.0482411
-9.6340e-04,2.39781,-0.0201234,,-9.6340e-04,-0.0482411
-9.6320e-04,2.40703,-0.0201047,,-9.6320e-04,-0.0478661
-9.6300e-04,2.38484,-0.0200422,,-9.6300e-04,-0.0481161
-9.6280e-04,2.39828,-0.0200781,,-9.6280e-04,-0.0479599
-9.6260e-04,2.39172,-0.0200766,,-9.6260e-04,-0.0481786
-9.6240e-04,2.38563,-0.0200531,,-9.6240e-04,-0.0480536
-9.6220e-04,2.39797,-0.0200484,,-9.6220e-04,-0.0481786
-9.6200e-04,2.39484,-0.0200594,,-9.6200e-04,-0.0481786
-9.6180e-04,2.39047,-0.0200547,,-9.6180e-04,-0.0478974
-9.6160e-04,2.39656,-0.0200453,,-9.6160e-04,-0.0478349
-9.6140e-04,2.4,-0.0200703,,-9.6140e-04,-0.0479286
-9.6120e-04,2.38922,-0.0200781,,-9.6120e-04,-0.0481474
-9.6100e-04,2.39141,-0.0200375,,-9.6100e-04,-0.0481474
-9.6080e-04,2.39031,-0.0200703,,-9.6080e-04,-0.0480849
-9.6060e-04,2.39328,-0.0201063,,-9.6060e-04,-0.0479599
-9.6040e-04,2.39094,-0.0199844,,-9.6040e-04,-0.0482724
-9.6020e-04,2.38625,-0.0201141,,-9.6020e-04,-0.0481786
-9.6000e-04,2.39266,-0.0200594,,-9.6000e-04,-0.0483036
-9.5980e-04,2.38547,-0.0200828,,-9.5980e-04,-0.0478661
-9.5960e-04,2.39703,-0.0199625,,-9.5960e-04,-0.0480849
-9.5940e-04,2.39219,-0.0199859,,-9.5940e-04,-0.0478661
-9.5920e-04,2.40094,-0.0200438,,-9.5920e-04,-0.0479286
-9.5900e-04,2.39828,-0.0200531,,-9.5900e-04,-0.0479911
-9.5880e-04,2.39328,-0.0200859,,-9.5880e-04,-0.0477411
-9.5860e-04,2.40125,-0.0200188,,-9.5860e-04,-0.0480849
-9.5840e-04,2.39047,-0.0200797,,-9.5840e-04,-0.0480536
-9.5820e-04,2.39609,-0.0200578,,-9.5820e-04,-0.0481786
-9.5800e-04,2.39625,-0.0200266,,-9.5800e-04,-0.0481786
-9.5780e-04,2.38875,-0.0200641,,-9.5780e-04,-0.0478974
-9.5760e-04,2.39234,-0.0200578,,-9.5760e-04,-0.0481474
-9.5740e-04,2.39578,-0.0200984,,-9.5740e-04,-0.0480536
-9.5720e-04,2.38594,-0.0200484,,-9.5720e-04,-0.0478974
-9.5700e-04,2.3925,-0.0200656,,-9.5700e-04,-0.0479599
-9.5680e-04,2.39016,-0.0200703,,-9.5680e-04,-0.0481161
-9.5660e-04,2.39531,-0.0200203,,-9.5660e-04,-0.0479286
-9.5640e-04,2.38563,-0.0200953,,-9.5640e-04,-0.0480224
-9.5620e-04,2.38984,-0.0201141,,-9.5620e-04,-0.0478349
-9.5600e-04,2.39156,-0.0200219,,-9.5600e-04,-0.0480224
-9.5580e-04,2.39797,-0.0200688,,-9.5580e-04,-0.0482411
-9.5560e-04,2.40172,-0.0200125,,-9.5560e-04,-0.0478661
-9.5540e-04,2.3875,-0.0201375,,-9.5540e-04,-0.0480224
-9.5520e-04,2.3975,-0.0201172,,-9.5520e-04,-0.0480849
-9.5500e-04,2.38813,-0.0200219,,-9.5500e-04,-0.0481474
-9.5480e-04,2.39688,-0.0200984,,-9.5480e-04,-0.0481161
-9.5460e-04,2.38734,-0.0200547,,-9.5460e-04,-0.0480224
-9.5440e-04,2.40156,-0.0200313,,-9.5440e-04,-0.0480849
-9.5420e-04,2.39219,-0.0201109,,-9.5420e-04,-0.0480224
-9.5400e-04,2.38719,-0.020125,,-9.5400e-04,-0.0477724
-9.5380e-04,2.38016,-0.0200297,,-9.5380e-04,-0.0478036
-9.5360e-04,2.38734,-0.0200906,,-9.5360e-04,-0.0479911
-9.5340e-04,2.38813,-0.0200406,,-9.5340e-04,-0.0480849
-9.5320e-04,2.39359,-0.0200969,,-9.5320e-04,-0.0480536
-9.5300e-04,2.38797,-0.0200281,,-9.5300e-04,-0.0479286
-9.5280e-04,2.38703,-0.0200422,,-9.5280e-04,-0.0478661
-9.5260e-04,2.38984,-0.0200547,,-9.5260e-04,-0.0480224
-9.5240e-04,2.38703,-0.0201109,,-9.5240e-04,-0.0481786
-9.5220e-04,2.39203,-0.0201219,,-9.5220e-04,-0.0478661
-9.5200e-04,2.37969,-0.0201188,,-9.5200e-04,-0.0478661
-9.5180e-04,2.38844,-0.0201,,-9.5180e-04,-0.0478036
-9.5160e-04,2.39297,-0.0200063,,-9.5160e-04,-0.0478036
-9.5140e-04,2.37953,-0.0200219,,-9.5140e-04,-0.0481161
-9.5120e-04,2.39109,-0.0200547,,-9.5120e-04,-0.0478974
-9.5100e-04,2.39328,-0.0200953,,-9.5100e-04,-0.0479286
-9.5080e-04,2.39328,-0.0200594,,-9.5080e-04,-0.0482099
-9.5060e-04,2.38703,-0.0200922,,-9.5060e-04,-0.0478661
-9.5040e-04,2.39531,-0.0200484,,-9.5040e-04,-0.0478036
-9.5020e-04,2.39234,-0.0200438,,-9.5020e-04,-0.0478349
-9.5000e-04,2.38422,-0.0201469,,-9.5000e-04,-0.0481161
-9.4980e-04,2.39531,-0.0200688,,-9.4980e-04,-0.0480849
-9.4960e-04,2.39656,-0.0200484,,-9.4960e-04,-0.0478661
-9.4940e-04,2.39047,-0.0200703,,-9.4940e-04,-0.0479599
-9.4920e-04,2.38391,-0.0200625,,-9.4920e-04,-0.0478974
-9.4900e-04,2.38828,-0.0200328,,-9.4900e-04,-0.0480849
-9.4880e-04,2.39359,-0.0201109,,-9.4880e-04,-0.0479599
-9.4860e-04,2.38687,-0.0200344,,-9.4860e-04,-0.0480224
-9.4840e-04,2.39203,-0.02005,,-9.4840e-04,-0.0478974
-9.4820e-04,2.38813,-0.0200469,,-9.4820e-04,-0.0481786
-9.4800e-04,2.39625,-0.0200031,,-9.4800e-04,-0.0477724
-9.4780e-04,2.38891,-0.0200484,,-9.4780e-04,-0.0478974
-9.4760e-04,2.39531,-0.0200516,,-9.4760e-04,-0.0476786
-9.4740e-04,2.38359,-0.0200297,,-9.4740e-04,-0.0481161
-9.4720e-04,2.39813,-0.0200172,,-9.4720e-04,-0.0480224
-9.4700e-04,2.39813,-0.0200578,,-9.4700e-04,-0.0478974
-9.4680e-04,2.39219,-0.0200563,,-9.4680e-04,-0.0481161
-9.4660e-04,2.38922,-0.0200625,,-9.4660e-04,-0.0478661
-9.4640e-04,2.38313,-0.0199641,,-9.4640e-04,-0.0478349
-9.4620e-04,2.38578,-0.0199563,,-9.4620e-04,-0.0481161
-9.4600e-04,2.38797,-0.0200297,,-9.4600e-04,-0.0479599
-9.4580e-04,2.39109,-0.0200219,,-9.4580e-04,-0.0478349
-9.4560e-04,2.38984,-0.0199953,,-9.4560e-04,-0.0480849
-9.4540e-04,2.38484,-0.0200422,,-9.4540e-04,-0.0476786
-9.4520e-04,2.38219,-0.0200469,,-9.4520e-04,-0.0477411
-9.4500e-04,2.38938,-0.0200688,,-9.4500e-04,-0.0478974
-9.4480e-04,2.39422,-0.0200328,,-9.4480e-04,-0.0480849
-9.4460e-04,2.39469,-0.0200203,,-9.4460e-04,-0.0479286
-9.4440e-04,2.38859,-0.0201172,,-9.4440e-04,-0.0479599
-9.4420e-04,2.39219,-0.0200828,,-9.4420e-04,-0.0479911
-9.4400e-04,2.38094,-0.0200688,,-9.4400e-04,-0.0478974
-9.4380e-04,2.39625,-0.0199859,,-9.4380e-04,-0.0481161
-9.4360e-04,2.38984,-0.0200391,,-9.4360e-04,-0.0479286
-9.4340e-04,2.39297,-0.0201016,,-9.4340e-04,-0.0480849
-9.4320e-04,2.38969,-0.0201219,,-9.4320e-04,-0.0478349
-9.4300e-04,2.38672,-0.0199406,,-9.4300e-04,-0.0480224
-9.4280e-04,2.38453,-0.0200219,,-9.4280e-04,-0.0479911
-9.4260e-04,2.38547,-0.020025,,-9.4260e-04,-0.0481161
-9.4240e-04,2.38969,-0.0200672,,-9.4240e-04,-0.0480224
-9.4220e-04,2.38969,-0.0200016,,-9.4220e-04,-0.0479599
-9.4200e-04,2.39344,-0.0200156,,-9.4200e-04,-0.0479286
-9.4180e-04,2.395,-0.0200609,,-9.4180e-04,-0.0478974
-9.4160e-04,2.38125,-0.0201094,,-9.4160e-04,-0.0478036
-9.4140e-04,2.37906,-0.0199531,,-9.4140e-04,-0.0477411
-9.4120e-04,2.38875,-0.0200453,,-9.4120e-04,-0.0477724
-9.4100e-04,2.38078,-0.0200141,,-9.4100e-04,-0.0479911
-9.4080e-04,2.39516,-0.0200188,,-9.4080e-04,-0.0478036
-9.4060e-04,2.39406,-0.0200406,,-9.4060e-04,-0.0479599
-9.4040e-04,2.38813,-0.0200625,,-9.4040e-04,-0.0478349
-9.4020e-04,2.38797,-0.0200438,,-9.4020e-04,-0.0478661
-9.4000e-04,2.38891,-0.0200297,,-9.4000e-04,-0.0478661
-9.3980e-04,2.38703,-0.0200344,,-9.3980e-04,-0.0477099
-9.3960e-04,2.39344,-0.0200203,,-9.3960e-04,-0.0478036
-9.3940e-04,2.39047,-0.0200313,,-9.3940e-04,-0.0478349
-9.3920e-04,2.38703,-0.0200469,,-9.3920e-04,-0.0476786
-9.3900e-04,2.38656,-0.0200938,,-9.3900e-04,-0.0478661
-9.3880e-04,2.38687,-0.0200875,,-9.3880e-04,-0.0479286
-9.3860e-04,2.38437,-0.0200094,,-9.3860e-04,-0.0477099
-9.3840e-04,2.38516,-0.0200734,,-9.3840e-04,-0.0478661
-9.3820e-04,2.39094,-0.0201063,,-9.3820e-04,-0.0475849
-9.3800e-04,2.38891,-0.0200094,,-9.3800e-04,-0.0479286
-9.3780e-04,2.38891,-0.0200703,,-9.3780e-04,-0.0477411
-9.3760e-04,2.38469,-0.0200969,,-9.3760e-04,-0.0478036
-9.3740e-04,2.3875,-0.0200422,,-9.3740e-04,-0.0480536
-9.3720e-04,2.39844,-0.0199875,,-9.3720e-04,-0.0479286
-9.3700e-04,2.38641,-0.0200219,,-9.3700e-04,-0.0479286
-9.3680e-04,2.39312,-0.0199828,,-9.3680e-04,-0.0478036
-9.3660e-04,2.38437,-0.0200531,,-9.3660e-04,-0.0479599
-9.3640e-04,2.38328,-0.0200031,,-9.3640e-04,-0.0478349
-9.3620e-04,2.39141,-0.0200609,,-9.3620e-04,-0.0478974
-9.3600e-04,2.38875,-0.0200953,,-9.3600e-04,-0.0477411
-9.3580e-04,2.38734,-0.0201125,,-9.3580e-04,-0.0479911
-9.3560e-04,2.39172,-0.0200313,,-9.3560e-04,-0.0479599
-9.3540e-04,2.38672,-0.0200844,,-9.3540e-04,-0.0478036
-9.3520e-04,2.38984,-0.0200016,,-9.3520e-04,-0.0480849
-9.3500e-04,2.38844,-0.0200203,,-9.3500e-04,-0.0477724
-9.3480e-04,2.38641,-0.0200203,,-9.3480e-04,-0.0478036
-9.3460e-04,2.38219,-0.0200391,,-9.3460e-04,-0.0477724
-9.3440e-04,2.38984,-0.0200531,,-9.3440e-04,-0.0477411
-9.3420e-04,2.38828,-0.0200016,,-9.3420e-04,-0.0480224
-9.3400e-04,2.38406,-0.020075,,-9.3400e-04,-0.0478349
-9.3380e-04,2.38172,-0.0200156,,-9.3380e-04,-0.0479599
-9.3360e-04,2.38234,-0.0200281,,-9.3360e-04,-0.0477724
-9.3340e-04,2.38594,-0.0200281,,-9.3340e-04,-0.0478974
-9.3320e-04,2.38969,-0.0200313,,-9.3320e-04,-0.0479599
-9.3300e-04,2.38766,-0.0199609,,-9.3300e-04,-0.0478036
-9.3280e-04,2.38016,-0.0199578,,-9.3280e-04,-0.0478349
-9.3260e-04,2.38828,-0.0200172,,-9.3260e-04,-0.0478661
-9.3240e-04,2.38297,-0.0200516,,-9.3240e-04,-0.0479599
-9.3220e-04,2.37953,-0.0200422,,-9.3220e-04,-0.0478349
-9.3200e-04,2.38563,-0.0200094,,-9.3200e-04,-0.0478974
-9.3180e-04,2.3875,-0.0200328,,-9.3180e-04,-0.0476474
-9.3160e-04,2.38797,-0.0200422,,-9.3160e-04,-0.0477411
-9.3140e-04,2.38344,-0.0200672,,-9.3140e-04,-0.0477099
-9.3120e-04,2.38437,-0.0200172,,-9.3120e-04,-0.0479911
-9.3100e-04,2.38031,-0.0200156,,-9.3100e-04,-0.0480536
-9.3080e-04,2.38797,-0.0200906,,-9.3080e-04,-0.0480536
-9.3060e-04,2.39203,-0.0200453,,-9.3060e-04,-0.0478661
-9.3040e-04,2.39641,-0.020075,,-9.3040e-04,-0.0476161
-9.3020e-04,2.385,-0.0200391,,-9.3020e-04,-0.0479286
-9.3000e-04,2.38891,-0.02005,,-9.3000e-04,-0.0478036
-9.2980e-04,2.38906,-0.0200766,,-9.2980e-04,-0.0478036
