data/Prep_Data/tek0000AELL2.2.csv

Model,MDO3012
Firmware Version,1.26

Waveform Type,ANALOG,
Point Format,Y,
Horizontal Units,s,
Horizontal Scale,4e-05,
Horizontal Delay,-8e-07,
Sample Interval,4e-08,
Record Length,10000,
Gating,0.0% to 100.0%,
Probe Attenuation,10,10
Vertical Units,V,V
Vertical Offset,0,0
Vertical Scale,5,10
Vertical Position,-0.04,-0.06
,,
,,
,,
Label,,
TIME,CH1,CH2
-2.0080e-04,-6.92578,10.6734
-2.0076e-04,-6.98203,10.7219
-2.0072e-04,-6.94609,10.6813
-2.0068e-04,-6.925,10.6094
-2.0064e-04,-6.96172,10.675
-2.0060e-04,-6.94531,10.7156
-2.0056e-04,-6.93984,10.6859
-2.0052e-04,-6.98125,10.6359
-2.0048e-04,-6.94297,10.6594
-2.0044e-04,-6.96094,10.6609
-2.0040e-04,-6.97891,10.6375
-2.0036e-04,-6.95391,10.6453
-2.0032e-04,-6.96094,10.7281
-2.0028e-04,-6.96172,10.6047
-2.0024e-04,-6.94922,10.7406
-2.0020e-04,-6.98203,10.7281
-2.0016e-04,-6.92969,10.7141
-2.0012e-04,-6.94141,10.6188
-2.0008e-04,-6.96172,10.6172
-2.0004e-04,-5.22891,10.8766
-2.0000e-04,6.67813,12.4109
-1.9996e-04,7.80625,10.7906
-1.9992e-04,7.90859,10.675
-1.9988e-04,7.93281,11.4344
-1.9984e-04,7.85078,10.7797
-1.9980e-04,7.84219,10.9469
-1.9976e-04,7.83203,11.2516
-1.9972e-04,7.79609,10.8703
-1.9968e-04,7.83203,10.9656
-1.9964e-04,7.83203,11.0625
-1.9960e-04,7.79688,11.0328
-1.9956e-04,7.85781,11.1578
-1.9952e-04,7.75313,11.0391
-1.9948e-04,7.82578,11.0438
-1.9944e-04,7.76953,10.9531
-1.9940e-04,7.79141,11.0062
-1.9936e-04,7.77734,11.0609
-1.9932e-04,7.74219,11.05
-1.9928e-04,7.73516,11.0953
-1.9924e-04,7.77188,10.9281
-1.9920e-04,7.73281,11.025
-1.9916e-04,7.76172,11.1172
-1.9912e-04,7.71328,11.1063
-1.9908e-04,7.75156,11.0781
-1.9904e-04,7.78047,11.0797
-1.9900e-04,7.76094,11.0219
-1.9896e-04,7.75313,11.0234
-1.9892e-04,7.74141,11.1359
-1.9888e-04,7.74609,11.0594
-1.9884e-04,7.7375,11.0844
-1.9880e-04,7.73281,11.0687
-1.9876e-04,7.73203,11.0563
-1.9872e-04,7.72656,11.0062
-1.9868e-04,7.68906,11.0719
-1.9864e-04,7.65625,10.9766
-1.9860e-04,7.72578,10.9844
-1.9856e-04,7.6875,11.0078
-1.9852e-04,7.73438,10.9625
-1.9848e-04,7.6875,11.0234
-1.9844e-04,7.73516,10.9859
-1.9840e-04,7.70078,11.0672
-1.9836e-04,7.69141,10.9813
-1.9832e-04,7.70781,11.0125
-1.9828e-04,7.69141,11.0438
-1.9824e-04,7.66172,11.0375
-1.9820e-04,7.70625,11.0563
-1.9816e-04,7.64609,11.0875
-1.9812e-04,7.71875,11.0172
-1.9808e-04,7.66563,11.1078
-1.9804e-04,7.70547,11.0266
-1.9800e-04,7.69375,11.0609
-1.9796e-04,7.65703,11.0859
-1.9792e-04,7.63906,11.0422
-1.9788e-04,7.66484,11.0641
-1.9784e-04,7.68359,10.95
-1.9780e-04,7.66563,10.9859
-1.9776e-04,7.70234,11.1547
-1.9772e-04,7.725,11.0094
-1.9768e-04,7.70469,11.0422
-1.9764e-04,7.67188,11.1094
-1.9760e-04,7.64063,11.0172
-1.9756e-04,7.71172,11.0687
-1.9752e-04,7.66641,11.0359
-1.9748e-04,7.68828,10.9906
-1.9744e-04,7.70078,11.0891
-1.9740e-04,7.64453,11.0734
-1.9736e-04,7.66484,10.9656
-1.9732e-04,7.71563,11.0672
-1.9728e-04,7.66172,10.9688
-1.9724e-04,7.70781,10.9859
-1.9720e-04,7.64922,10.9797
-1.9716e-04,7.67422,10.9969
-1.9712e-04,7.66641,11.0047
-1.9708e-04,7.67656,11.0109
-1.9704e-04,7.68516,11.0781
-1.9700e-04,7.66953,11.0141
-1.9696e-04,7.71172,10.9875
-1.9692e-04,7.63984,11.0594
-1.9688e-04,7.64688,11.0312
-1.9684e-04,7.65,11.0281
-1.9680e-04,7.63828,11.1
-1.9676e-04,7.64844,11.0719
-1.9672e-04,7.67578,10.9641
-1.9668e-04,7.67813,11.0516
-1.9664e-04,7.67891,11.0219
-1.9660e-04,7.66875,11.0156
-1.9656e-04,7.65781,11.0156
-1.9652e-04,7.66797,10.9594
-1.9648e-04,7.65938,11.0047
-1.9644e-04,7.66406,11.0516
-1.9640e-04,7.67734,10.9328
-1.9636e-04,7.66406,11.0203
-1.9632e-04,7.65703,11.0641
-1.9628e-04,7.63438,11.0016
-1.9624e-04,7.63516,11.0578
-1.9620e-04,7.66172,10.95
-1.9616e-04,7.63516,11.1156
-1.9612e-04,7.66016,11.0172
-1.9608e-04,7.63125,10.9641
-1.9604e-04,7.65547,11.0297
-1.9600e-04,7.6625,11.0797
-1.9596e-04,7.65547,11.0328
-1.9592e-04,7.63672,11.1297
-1.9588e-04,7.67188,11.0781
-1.9584e-04,7.63672,10.9609
-1.9580e-04,7.64375,11.0328
-1.9576e-04,7.62656,11.0438
-1.9572e-04,7.64453,11.1328
-1.9568e-04,7.63906,11.0297
-1.9564e-04,7.67031,11.0234
-1.9560e-04,7.65547,11.0594
-1.9556e-04,7.6375,11.0578
-1.9552e-04,7.66172,11.0922
-1.9548e-04,7.60938,11.1141
-1.9544e-04,7.63203,11.1141
-1.9540e-04,7.62656,11.0547
-1.9536e-04,7.63203,11.0047
-1.9532e-04,7.63828,11.0875
-1.9528e-04,7.63047,10.9813
-1.9524e-04,7.61953,10.9734
-1.9520e-04,7.64766,11.0781
-1.9516e-04,7.63438,11.0734
-1.9512e-04,7.64453,10.9984
-1.9508e-04,7.61641,11.0438
-1.9504e-04,7.63516,11.0891
-1.9500e-04,7.65938,11.0594
-1.9496e-04,7.66016,11.0109
-1.9492e-04,7.60859,11.1422
-1.9488e-04,7.65156,11.0687
-1.9484e-04,7.59844,11.0391
-1.9480e-04,7.62813,11.1078
-1.9476e-04,7.60938,11.0578
-1.9472e-04,7.64063,11.0781
-1.9468e-04,7.62422,11.0281
-1.9464e-04,7.66094,11.0672
-1.9460e-04,7.60313,11.0734
-1.9456e-04,7.62188,11.0312
-1.9452e-04,7.59219,11.0141
-1.9448e-04,7.62109,11.0656
-1.9444e-04,7.61563,11.0719
-1.9440e-04,7.62109,11.0969
-1.9436e-04,7.62188,11.0062
-1.9432e-04,7.61953,11.0594
-1.9428e-04,7.64922,11.0281
-1.9424e-04,7.60859,11.0672
-1.9420e-04,7.60859,11.0156
-1.9416e-04,7.63906,11.0594
-1.9412e-04,7.63984,10.9203
-1.9408e-04,7.62813,11.0281
-1.9404e-04,7.64766,10.9781
-1.9400e-04,7.65156,10.9281
-1.9396e-04,7.61484,10.8969
-1.9392e-04,7.59219,10.8484
-1.9388e-04,7.61563,10.9141
-1.9384e-04,7.58125,10.7781
-1.9380e-04,7.62031,10.7781
-1.9376e-04,7.62266,10.8063
-1.9372e-04,7.64219,10.7547
-1.9368e-04,7.65156,10.7984
-1.9364e-04,7.65391,10.6375
-1.9360e-04,7.60391,10.6672
-1.9356e-04,7.65,10.6625
-1.9352e-04,7.60859,10.5953
-1.9348e-04,7.62813,10.5016
-1.9344e-04,7.66875,10.5625
-1.9340e-04,7.62266,10.4719
-1.9336e-04,7.61016,10.4828
-1.9332e-04,7.57969,10.3516
-1.9328e-04,7.60859,10.2578
-1.9324e-04,7.575,10.2484
-1.9320e-04,7.6,10.2313
-1.9316e-04,7.61406,10.1797
-1.9312e-04,7.62969,10.1734
-1.9308e-04,7.60078,10.1344
-1.9304e-04,7.60469,10.1687
-1.9300e-04,7.65938,10.0781
-1.9296e-04,7.62188,10.1312
-1.9292e-04,7.60469,10.0156
-1.9288e-04,7.59688,10.0062
-1.9284e-04,7.60234,9.95312
-1.9280e-04,7.62578,9.90156
-1.9276e-04,7.57188,9.95
-1.9272e-04,7.60234,9.82656
-1.9268e-04,7.60781,9.86094
-1.9264e-04,7.60313,9.77031
-1.9260e-04,7.60703,9.80625
-1.9256e-04,7.61484,9.77812
-1.9252e-04,7.5875,9.72813
-1.9248e-04,7.58984,9.65469
-1.9244e-04,7.56875,9.71562
-1.9240e-04,7.57109,9.74219
-1.9236e-04,7.58125,9.69219
-1.9232e-04,7.57734,9.59375
-1.9228e-04,7.62188,9.66094
-1.9224e-04,7.58281,9.57812
-1.9220e-04,7.62344,9.54375
-1.9216e-04,7.62734,9.5875
-1.9212e-04,7.63438,9.50938
-1.9208e-04,7.56875,9.44688
-1.9204e-04,7.56797,9.45312
-1.9200e-04,7.59375,9.45156
-1.9196e-04,7.61953,9.37813
-1.9192e-04,7.58281,9.37187
-1.9188e-04,7.56797,9.38438
-1.9184e-04,7.59531,9.35938
-1.9180e-04,7.63125,9.38125
-1.9176e-04,7.60156,9.29844
-1.9172e-04,7.5875,9.25
-1.9168e-04,7.59609,9.26406
-1.9164e-04,7.6,9.24375
-1.9160e-04,7.59844,9.20156
-1.9156e-04,7.59141,9.22969
-1.9152e-04,7.58438,9.04219
-1.9148e-04,7.61094,9.075
-1.9144e-04,7.60313,9.08906
-1.9140e-04,7.57188,9.09219
-1.9136e-04,7.57344,9.06875
-1.9132e-04,7.56953,9.08437
-1.9128e-04,7.61172,9.01094
-1.9124e-04,7.58359,9.07031
-1.9120e-04,7.58203,8.96562
-1.9116e-04,7.58516,8.98438
-1.9112e-04,7.57578,8.85
-1.9108e-04,7.55781,8.90625
-1.9104e-04,7.57891,8.89687
-1.9100e-04,7.55391,8.8875
-1.9096e-04,7.55703,8.86719
-1.9092e-04,7.56484,8.70469
-1.9088e-04,7.56953,8.75469
-1.9084e-04,7.57656,8.74375
-1.9080e-04,7.57969,8.73125
-1.9076e-04,7.575,8.62813
-1.9072e-04,7.56563,8.76094
-1.9068e-04,7.57969,8.58125
-1.9064e-04,7.57031,8.60313
-1.9060e-04,7.57266,8.58125
-1.9056e-04,7.55078,8.59063
-1.9052e-04,7.55469,8.52344
-1.9048e-04,7.57422,8.46875
-1.9044e-04,7.57734,8.45937
-1.9040e-04,7.55859,8.44844
-1.9036e-04,7.5625,8.37656
-1.9032e-04,7.56172,8.42188
-1.9028e-04,7.57031,8.42031
-1.9024e-04,7.56641,8.35625
-1.9020e-04,7.57031,8.35
-1.9016e-04,7.55547,8.35
-1.9012e-04,7.60859,8.32812
-1.9008e-04,7.55313,8.27187
-1.9004e-04,7.56641,8.1875
-1.9000e-04,7.58125,8.24844
-1.8996e-04,7.56172,8.19531
-1.8992e-04,7.57188,8.12656
-1.8988e-04,7.53828,8.15781
-1.8984e-04,7.58047,8.1375
-1.8980e-04,7.58828,8.07031
-1.8976e-04,7.53125,8.07031
-1.8972e-04,7.58594,8.04063
-1.8968e-04,7.54219,8.06719
-1.8964e-04,7.56016,8.01094
-1.8960e-04,7.57578,8.03281
-1.8956e-04,7.53359,7.98438
-1.8952e-04,7.55,7.9125
-1.8948e-04,7.55078,7.94688
-1.8944e-04,7.54922,7.81563
-1.8940e-04,7.56094,7.82031
-1.8936e-04,7.53359,7.86094
-1.8932e-04,7.56484,7.87969
-1.8928e-04,7.56094,7.825
-1.8924e-04,7.56797,7.78125
-1.8920e-04,7.56563,7.73125
-1.8916e-04,7.5375,7.87344
-1.8912e-04,7.58203,7.7875
-1.8908e-04,7.50078,7.77344
-1.8904e-04,7.51875,7.75781
-1.8900e-04,7.54922,7.64375
-1.8896e-04,7.55547,7.64062
-1.8892e-04,7.52813,7.63906
-1.8888e-04,7.56094,7.57188
-1.8884e-04,7.51172,7.54219
-1.8880e-04,7.55781,7.63438
-1.8876e-04,7.56719,7.52031
-1.8872e-04,7.525,7.48594
-1.8868e-04,7.54063,7.57344
-1.8864e-04,7.55234,7.50625
-1.8860e-04,7.53125,7.45469
-1.8856e-04,7.55,7.47969
-1.8852e-04,7.52813,7.44844
-1.8848e-04,7.56172,7.38438
-1.8844e-04,7.53516,7.3375
-1.8840e-04,7.54531,7.275
-1.8836e-04,7.53047,7.16094
-1.8832e-04,7.53125,7.32188
-1.8828e-04,7.54375,7.24531
-1.8824e-04,7.50078,7.25156
-1.8820e-04,7.52656,7.17031
-1.8816e-04,7.55938,7.23125
-1.8812e-04,7.51406,7.12188
-1.8808e-04,7.525,7.12188
-1.8804e-04,7.55234,7.06563
-1.8800e-04,7.53828,7.03281
-1.8796e-04,7.5625,7.07031
-1.8792e-04,7.53203,6.96719
-1.8788e-04,7.56172,7.06406
-1.8784e-04,7.56797,6.9625
-1.8780e-04,7.53594,6.96406
-1.8776e-04,7.55469,6.87656
-1.8772e-04,7.53359,6.94844
-1.8768e-04,7.56484,6.85781
-1.8764e-04,7.54531,6.86406
-1.8760e-04,7.54219,6.84063
-1.8756e-04,7.53047,6.82656
-1.8752e-04,7.52188,6.82656
-1.8748e-04,7.56563,6.78281
-1.8744e-04,7.54063,6.79844
-1.8740e-04,7.53203,6.67812
-1.8736e-04,7.475,6.68594
-1.8732e-04,7.5,6.67344
-1.8728e-04,7.51719,6.66094
-1.8724e-04,7.49297,6.71563
-1.8720e-04,7.50625,6.6625
-1.8716e-04,7.52109,6.63438
-1.8712e-04,7.53047,6.52031
-1.8708e-04,7.5375,6.57812
-1.8704e-04,7.52813,6.53594
-1.8700e-04,7.55313,6.57812
-1.8696e-04,7.54688,6.51406
-1.8692e-04,7.55,6.49531
-1.8688e-04,7.48984,6.48125
-1.8684e-04,7.52813,6.44531
-1.8680e-04,7.51641,6.41406
-1.8676e-04,7.48281,6.40156
-1.8672e-04,7.5375,6.39844
-1.8668e-04,7.55234,6.32656
-1.8664e-04,7.50781,6.32656
-1.8660e-04,7.51875,6.34375
-1.8656e-04,7.47422,6.21719
-1.8652e-04,7.52344,6.22344
-1.8648e-04,7.5,6.24844
-1.8644e-04,7.54297,6.22813
-1.8640e-04,7.53984,6.20937
-1.8636e-04,7.51094,6.2125
-1.8632e-04,7.51875,6.14219
-1.8628e-04,7.48984,6.10156
-1.8624e-04,7.50625,6.15781
-1.8620e-04,7.5375,6.075
-1.8616e-04,7.50313,5.97656
-1.8612e-04,7.52969,5.91094
-1.8608e-04,7.50391,5.95312
-1.8604e-04,7.5375,5.90313
-1.8600e-04,7.53359,5.87656
-1.8596e-04,7.52422,5.93438
-1.8592e-04,7.53125,5.75
-1.8588e-04,7.54063,5.82344
-1.8584e-04,7.49531,5.82188
-1.8580e-04,7.49688,5.81563
-1.8576e-04,7.52578,5.76875
-1.8572e-04,7.50469,5.71094
-1.8568e-04,7.47422,5.81406
-1.8564e-04,7.53359,5.70625
-1.8560e-04,7.54141,5.72188
-1.8556e-04,7.53516,5.65156
-1.8552e-04,7.53984,5.57031
-1.8548e-04,7.51953,5.61875
-1.8544e-04,7.45,5.64531
-1.8540e-04,7.49063,5.6125
-1.8536e-04,7.51406,5.49375
-1.8532e-04,7.49922,5.60938
-1.8528e-04,7.51719,5.51719
-1.8524e-04,7.53203,5.47656
-1.8520e-04,7.52734,5.46719
-1.8516e-04,7.47969,5.47969
-1.8512e-04,7.52578,5.36875
-1.8508e-04,7.49766,5.43438
-1.8504e-04,7.51953,5.32656
-1.8500e-04,7.49609,5.36094
-1.8496e-04,7.48438,5.36719
-1.8492e-04,7.48828,5.3375
-1.8488e-04,7.55,5.28281
-1.8484e-04,7.50625,5.29375
-1.8480e-04,7.51797,5.20781
-1.8476e-04,7.53281,5.22969
-1.8472e-04,7.51172,5.21719
-1.8468e-04,7.49531,5.1875
-1.8464e-04,7.52969,5.175
-1.8460e-04,7.48281,5.05312
-1.8456e-04,7.48984,5.07969
-1.8452e-04,7.50234,5.15156
-1.8448e-04,7.525,5.04688
-1.8444e-04,7.51016,4.97344
-1.8440e-04,7.49688,4.99531
-1.8436e-04,7.50234,4.95
-1.8432e-04,7.46172,4.96406
-1.8428e-04,7.48125,4.88125
-1.8424e-04,7.47656,4.85625
-1.8420e-04,7.48281,4.84844
-1.8416e-04,7.47891,4.80625
-1.8412e-04,7.48672,4.82812
-1.8408e-04,7.44141,4.82188
-1.8404e-04,7.50234,4.71563
-1.8400e-04,7.45938,4.65
-1.8396e-04,7.48125,4.7
-1.8392e-04,7.49375,4.68281
-1.8388e-04,7.47266,4.64375
-1.8384e-04,7.49531,4.60938
-1.8380e-04,7.49844,4.6625
-1.8376e-04,7.46953,4.61094
-1.8372e-04,7.46016,4.52969
-1.8368e-04,7.50938,4.53438
-1.8364e-04,7.49844,4.39844
-1.8360e-04,7.48906,4.4875
-1.8356e-04,7.50938,4.425
-1.8352e-04,7.47578,4.47188
-1.8348e-04,7.50703,4.4
-1.8344e-04,7.46094,4.38906
-1.8340e-04,7.48359,4.25469
-1.8336e-04,7.51719,4.28281
-1.8332e-04,7.49063,4.27344
-1.8328e-04,7.48906,4.2375
-1.8324e-04,7.49688,4.20625
-1.8320e-04,7.51328,4.17656
-1.8316e-04,7.5375,4.20937
-1.8312e-04,7.48359,4.12969
-1.8308e-04,7.48359,4.12813
-1.8304e-04,7.48906,4.13594
-1.8300e-04,7.47578,4.13125
-1.8296e-04,7.47109,3.99219
-1.8292e-04,7.44375,4.05938
-1.8288e-04,7.47188,3.95313
-1.8284e-04,7.45,4.0125
-1.8280e-04,7.43672,3.99844
-1.8276e-04,7.48594,3.89844
-1.8272e-04,7.47813,3.96875
-1.8268e-04,7.48281,3.95625
-1.8264e-04,7.52813,3.82031
-1.8260e-04,7.46797,3.90156
-1.8256e-04,7.48828,3.77656
-1.8252e-04,7.45078,3.82813
-1.8248e-04,7.47344,3.74844
-1.8244e-04,7.43828,3.72813
-1.8240e-04,7.46719,3.71094
-1.8236e-04,7.48281,3.7625
-1.8232e-04,7.50234,3.7375
-1.8228e-04,7.47813,3.64063
-1.8224e-04,7.48984,3.64375
-1.8220e-04,7.50625,3.57344
-1.8216e-04,7.45391,3.63438
-1.8212e-04,7.4625,3.6375
-1.8208e-04,7.48359,3.54219
-1.8204e-04,7.45859,3.52656
-1.8200e-04,7.43594,3.41094
-1.8196e-04,7.47969,3.45313
-1.8192e-04,7.47578,3.42344
-1.8188e-04,7.48203,3.52031
-1.8184e-04,7.49141,3.31406
-1.8180e-04,7.43906,3.3875
-1.8176e-04,7.44766,3.31875
-1.8172e-04,7.48516,3.35156
-1.8168e-04,7.45703,3.27188
-1.8164e-04,7.46563,3.33438
-1.8160e-04,7.45859,3.2125
-1.8156e-04,7.49141,3.21563
-1.8152e-04,7.45234,3.19219
-1.8148e-04,7.48906,3.20156
-1.8144e-04,7.48828,3.12656
-1.8140e-04,7.45781,3.15
-1.8136e-04,7.44141,3.14844
-1.8132e-04,7.49063,3.13125
-1.8128e-04,7.50469,3.03125
-1.8124e-04,7.46094,3.16875
-1.8120e-04,7.49297,3.04688
-1.8116e-04,7.47188,3.05625
-1.8112e-04,7.46953,3.01563
-1.8108e-04,7.47031,2.92656
-1.8104e-04,7.46797,2.93281
-1.8100e-04,7.46094,2.94688
-1.8096e-04,7.45781,2.92188
-1.8092e-04,7.46719,2.87344
-1.8088e-04,7.42344,2.74375
-1.8084e-04,7.44922,2.77031
-1.8080e-04,7.45859,2.76875
-1.8076e-04,7.48594,2.73281
-1.8072e-04,7.43516,2.74219
-1.8068e-04,7.46484,2.74844
-1.8064e-04,7.42344,2.65313
-1.8060e-04,7.46563,2.70625
-1.8056e-04,7.49453,2.67188
-1.8052e-04,7.43516,2.61875
-1.8048e-04,7.44688,2.53594
-1.8044e-04,7.44453,2.59688
-1.8040e-04,7.44844,2.51406
-1.8036e-04,7.42813,2.43281
-1.8032e-04,7.43984,2.43594
-1.8028e-04,7.47266,2.44375
-1.8024e-04,7.46719,2.49688
-1.8020e-04,7.49297,2.42031
-1.8016e-04,7.42109,2.375
-1.8012e-04,7.46016,2.32969
-1.8008e-04,7.42656,2.35781
-1.8004e-04,7.40469,2.275
-1.8000e-04,7.47031,2.28906
-1.7996e-04,7.43828,2.25781
-1.7992e-04,7.46094,2.19375
-1.7988e-04,7.44844,2.16563
-1.7984e-04,7.43672,2.14531
-1.7980e-04,7.42031,2.22656
-1.7976e-04,7.40313,2.15
-1.7972e-04,7.47734,2.10938
-1.7968e-04,7.46406,2.15938
-1.7964e-04,7.48516,2.04219
-1.7960e-04,7.42734,2.05313
-1.7956e-04,7.42422,2.0125
-1.7952e-04,7.46953,2.06094
-1.7948e-04,7.44219,1.96563
-1.7944e-04,7.48203,1.95156
-1.7940e-04,7.45781,1.95313
-1.7936e-04,7.44766,1.88125
-1.7932e-04,7.44375,1.81875
-1.7928e-04,7.44922,1.86406
-1.7924e-04,7.42344,1.90781
-1.7920e-04,7.45703,1.85313
-1.7916e-04,7.44766,1.7625
-1.7912e-04,7.45781,1.79844
-1.7908e-04,7.45234,1.76563
-1.7904e-04,7.43984,1.68906
-1.7900e-04,7.42891,1.68438
-1.7896e-04,7.44375,1.75625
-1.7892e-04,7.47109,1.66875
-1.7888e-04,7.44297,1.67813
-1.7884e-04,7.43125,1.60156
-1.7880e-04,7.45313,1.59219
-1.7876e-04,7.44531,1.56719
-1.7872e-04,7.43359,1.50938
-1.7868e-04,7.45625,1.525
-1.7864e-04,7.43906,1.475
-1.7860e-04,7.45078,1.52188
-1.7856e-04,7.41719,1.43281
-1.7852e-04,7.45469,1.46563
-1.7848e-04,7.42188,1.36719
-1.7844e-04,7.37813,1.41406
-1.7840e-04,7.43516,1.35938
-1.7836e-04,7.43594,1.39844
-1.7832e-04,7.43906,1.32188
-1.7828e-04,7.44688,1.32344
-1.7824e-04,7.41406,1.33281
-1.7820e-04,7.42422,1.28594
-1.7816e-04,7.40313,1.24375
-1.7812e-04,7.42422,1.19375
-1.7808e-04,7.43984,1.25156
-1.7804e-04,7.46406,1.175
-1.7800e-04,7.42656,1.18906
-1.7796e-04,7.45156,1.2375
-1.7792e-04,7.45859,1.1125
-1.7788e-04,7.39531,1.08438
-1.7784e-04,7.41172,1.075
-1.7780e-04,7.40938,0.979688
-1.7776e-04,7.4375,1.10625
-1.7772e-04,7.42031,0.990625
-1.7768e-04,7.42422,0.960938
-1.7764e-04,7.42656,1
-1.7760e-04,7.46563,0.889063
-1.7756e-04,7.42891,0.928125
-1.7752e-04,7.41641,0.878125
-1.7748e-04,7.39531,0.89375
-1.7744e-04,7.40625,0.814063
-1.7740e-04,7.37734,0.814063
-1.7736e-04,7.46094,0.728125
-1.7732e-04,7.38594,0.68125
-1.7728e-04,7.40234,0.751563
-1.7724e-04,7.42344,0.695313
-1.7720e-04,7.45,0.682813
-1.7716e-04,7.4625,0.673438
-1.7712e-04,7.42266,0.654688
-1.7708e-04,7.41563,0.69375
-1.7704e-04,7.41797,0.61875
-1.7700e-04,7.45,0.623438
-1.7696e-04,7.41016,0.63125
-1.7692e-04,7.39453,0.642188
-1.7688e-04,7.41953,0.58125
-1.7684e-04,7.38203,0.596875
-1.7680e-04,7.39531,0.584375
-1.7676e-04,7.41875,0.545313
-1.7672e-04,7.40781,0.55
-1.7668e-04,7.41094,0.565625
-1.7664e-04,7.40859,0.54375
-1.7660e-04,7.43203,0.542188
-1.7656e-04,7.44375,0.484375
-1.7652e-04,7.43203,0.4875
-1.7648e-04,7.4,0.490625
-1.7644e-04,7.40781,0.482813
-1.7640e-04,7.425,0.446875
-1.7636e-04,7.38984,0.432813
-1.7632e-04,7.37969,0.392188
-1.7628e-04,7.4,0.3875
-1.7624e-04,7.36953,0.253125
-1.7620e-04,7.42031,0.309375
-1.7616e-04,7.42422,0.321875
-1.7612e-04,7.41797,0.260938
-1.7608e-04,7.38047,0.271875
-1.7604e-04,7.40156,0.234375
-1.7600e-04,7.40781,0.25625
-1.7596e-04,7.40391,0.171875
-1.7592e-04,7.40156,0.185938
-1.7588e-04,7.40547,0.1375
-1.7584e-04,7.42266,0.10625
-1.7580e-04,7.39766,0.157813
-1.7576e-04,7.375,0.0546875
-1.7572e-04,7.38359,0.0546875
-1.7568e-04,7.375,0.03125
-1.7564e-04,7.39375,0.0453125
-1.7560e-04,7.34766,0.053125
-1.7556e-04,7.40156,-0.0296875
-1.7552e-04,7.38906,-0.0328125
-1.7548e-04,7.39453,-0.059375
-1.7544e-04,7.36484,-0.090625
-1.7540e-04,7.37734,-0.0421875
-1.7536e-04,7.39766,-0.125
-1.7532e-04,7.40469,-0.11875
-1.7528e-04,7.37109,-0.117188
-1.7524e-04,7.39219,-0.282812
-1.7520e-04,7.36328,-0.207812
-1.7516e-04,7.39141,-0.260937
-1.7512e-04,7.40625,-0.271875
-1.7508e-04,7.38594,-0.309375
-1.7504e-04,7.38438,-0.328125
-1.7500e-04,7.38828,-0.31875
-1.7496e-04,7.37344,-0.353125
-1.7492e-04,7.37578,-0.3875
-1.7488e-04,7.37266,-0.38125
-1.7484e-04,7.36563,-0.435937
-1.7480e-04,7.37578,-0.470312
-1.7476e-04,7.38672,-0.504687
-1.7472e-04,7.38125,-0.554688
-1.7468e-04,7.36641,-0.534375
-1.7464e-04,7.39688,-0.565625
-1.7460e-04,7.39141,-0.525
-1.7456e-04,7.34453,-0.68125
-1.7452e-04,7.37656,-0.553125
-1.7448e-04,7.39766,-0.65
-1.7444e-04,7.34922,-0.645312
-1.7440e-04,7.38906,-0.65
-1.7436e-04,7.38594,-0.682813
-1.7432e-04,7.35781,-0.689062
-1.7428e-04,7.41016,-0.7125
-1.7424e-04,7.39688,-0.764063
-1.7420e-04,7.39844,-0.795313
-1.7416e-04,7.38516,-0.820312
-1.7412e-04,7.34375,-0.839063
-1.7408e-04,7.42422,-0.832812
-1.7404e-04,7.38906,-0.882812
-1.7400e-04,7.38203,-0.915625
-1.7396e-04,7.37031,-0.932813
-1.7392e-04,7.35469,-0.926562
-1.7388e-04,7.34219,-0.926562
-1.7384e-04,7.36953,-0.9875
-1.7380e-04,7.40703,-0.948438
-1.7376e-04,7.34063,-1.02031
-1.7372e-04,7.39219,-1.10156
-1.7368e-04,7.36719,-1.07031
-1.7364e-04,7.36406,-1.08125
-1.7360e-04,7.33828,-1.13594
-1.7356e-04,7.37891,-1.14531
-1.7352e-04,7.35938,-1.10938
-1.7348e-04,7.35,-1.16719
-1.7344e-04,7.35156,-1.19844
-1.7340e-04,7.35078,-1.26719
-1.7336e-04,7.37656,-1.24063
-1.7332e-04,7.36797,-1.3625
-1.7328e-04,7.36797,-1.27031
-1.7324e-04,7.37422,-1.275
-1.7320e-04,7.41094,-1.35938
-1.7316e-04,7.39453,-1.30781
-1.7312e-04,7.37969,-1.4
-1.7308e-04,7.36094,-1.41094
-1.7304e-04,7.34453,-1.38906
-1.7300e-04,7.34375,-1.46875
-1.7296e-04,7.3375,-1.40781
-1.7292e-04,7.33047,-1.45312
-1.7288e-04,7.37031,-1.52813
-1.7284e-04,7.35313,-1.6375
-1.7280e-04,7.36641,-1.59063
-1.7276e-04,7.37813,-1.55781
-1.7272e-04,7.37344,-1.59687
